{
  "development": {
    "username": "postgres",
    "password": "admin",
    "database": "tokook",
    "host": "localhost",
    "dialect": "postgres"
  },
  "test": {
    "username": "postgres",
    "password": "admin",
    "database": "tokook",
    "host": "localhost",
    "dialect": "postgres"
  },
  "production": {
    "username": "postgres",
    "password": "admin",
    "database": "tokook",
    "host": "localhost",
    "dialect": "postgres"
  }
}
